{
  "name": "zweb-theme",
  "exclude": [
    "node_modules"
  ],
  "tests": [
      "./tests/wpa/*.php"
  ],
  "enforce_clean_db": false,
  "project_path": "%WP_ROOT%/wp-content/themes/zweb-theme",
  "environment_instructions": [
    [
      "install wordpress where url is http://zweb-theme.test",
      "enable theme where name is zweb-theme"
    ]
  ]
}
